<svg width="200" height="200" viewBox="30 10 160 200" xmlns="http://www.w3.org/2000/svg">
  <!--<rect x="0" y="0" width="100%" height="100%" fill="#000000"/>-->
  <polyline points="120,20 20,20 20,190 150,190 150,60 112,60 112,13"
    stroke="rgb(0, 51, 160)"
    stroke-width="15"
    fill="none"
    stroke-linejoin="round"
    rx="10"
    ry="10"/>
  <polyline points="115.5,16 153,62"
    stroke="rgb(0, 51, 160)"
    stroke-width="11"
    fill="none"/>
  <rect x="60" y="40" width="50" height="9" fill="rgb(0, 51, 160)"/>
  <rect x="60" y="70" width="70" height="9" fill="rgb(0, 51, 160)"/>
  <rect x="60" y="100" width="70" height="9" fill="rgb(0, 51, 160)"/>
  <rect x="60" y="130" width="70" height="9" fill="rgb(0, 51, 160)"/>
  <rect x="60" y="160" width="70" height="9" fill="rgb(0, 51, 160)"/>
  <polyline points="50,45 50,50 35,50 35,35 50,35 50,40"
    stroke="rgb(250, 42, 74)"
    stroke-width="4"
    fill="none"
    />
  <polyline points="50,75 50,80 35,80 35,65 50,65 50,70"
    stroke="rgb(250, 42, 74)"
    stroke-width="4"
    fill="none"
    />
  <polyline points="50,105 50,110 35,110 35,95 50,95 50,100"
    stroke="rgb(250, 42, 74)"
    stroke-width="4"
    fill="none"
    />
  <polyline points="50,135 50,140 35,140 35,125 50,125 50,140"
    stroke="rgb(250, 42, 74)"
    stroke-width="4"
    fill="none"
    />
  <polyline points="50,165 50,170 35,170 35,155 50,155 50,170"
    stroke="rgb(250, 42, 74)"
    stroke-width="4"
    fill="none"
    />
  <polyline points="40,40 46,45 60,35"
    stroke="rgb(250, 42, 74)"
    stroke-width="3"
    fill="none"
    stroke-linejoin="round"
    stroke-linecap="round"
    />
  <polyline points="40,70 46,75 60,65"
    stroke="rgb(250, 42, 74)"
    stroke-width="3"
    fill="none"
    stroke-linejoin="round"
    stroke-linecap="round"
    />
  <polyline points="40,100 46,105 60,95"
    stroke="rgb(250, 42, 74)"
    stroke-width="3"
    fill="none"
    stroke-linejoin="round"
    stroke-linecap="round"
    />
</svg>
